@startuml

title __JSON's Class Diagram__\n

  namespace fr.cnam.foad.nfa035.badges.fileutils.streaming.serializer {
    namespace impl {
      namespace db {
        namespace json {
          interface fr.cnam.foad.nfa035.badges.fileutils.streaming.serializer.impl.db.json.JSONWalletBonusDeserializer {
              {abstract} + deserialize()
              {abstract} + deserialize()
          }
        }
      }
    }
  }
  

  namespace fr.cnam.foad.nfa035.badges.fileutils.streaming.serializer {
    namespace impl {
      namespace db {
        namespace json {
          class fr.cnam.foad.nfa035.badges.fileutils.streaming.serializer.impl.db.json.JSONWalletDeserializerDAImpl {
              ~ metas : Set<DigitalBadge>
              {static} - LOG : Logger
              - sourceOutputStream : OutputStream
              + JSONWalletDeserializerDAImpl()
              + deserialize()
              + deserialize()
              + deserialize()
              + deserialize()
              + getDeserializingStream()
              + getSourceOutputStream()
              + setSourceOutputStream()
              - refreshBadgeMetadata()
          }
        }
      }
    }
  }
  

  namespace fr.cnam.foad.nfa035.badges.fileutils.streaming.serializer {
    namespace impl {
      namespace db {
        namespace json {
          class fr.cnam.foad.nfa035.badges.fileutils.streaming.serializer.impl.db.json.JSONWalletSerializerDAImpl {
              + JSONWalletSerializerDAImpl()
              + getMetas()
              + getSerializingStream()
              + getSourceInputStream()
              + serialize()
          }
        }
      }
    }
  }
  

  namespace fr.cnam.foad.nfa035.badges.fileutils.streaming.serializer {
    namespace impl {
      namespace db {
        namespace json {
          enum ManagedImages {
            gif
            jpeg
            jpg
            png
            mimeType
          }
        }
      }
    }
  }
  

  namespace fr.cnam.foad.nfa035.badges.fileutils.streaming.serializer {
    namespace impl {
      namespace db {
        namespace json {
          class fr.cnam.foad.nfa035.badges.fileutils.streaming.serializer.impl.db.json.MetadataDeserializerJSONImpl {
              {static} - LOG : Logger
              + deserialize()
              + markAsDeleted()
          }
        }
      }
    }
  }
  

  fr.cnam.foad.nfa035.badges.fileutils.streaming.serializer.impl.db.json.JSONWalletDeserializerDAImpl .up.|> fr.cnam.foad.nfa035.badges.fileutils.streaming.serializer.impl.db.json.JSONWalletBonusDeserializer
  fr.cnam.foad.nfa035.badges.fileutils.streaming.serializer.impl.db.json.JSONWalletSerializerDAImpl -up-|> fr.cnam.foad.nfa035.badges.fileutils.streaming.serializer.AbstractWalletSerializer
  fr.cnam.foad.nfa035.badges.fileutils.streaming.serializer.impl.db.json.JSONWalletSerializerDAImpl o-- fr.cnam.foad.nfa035.badges.wallet.model.DigitalWallet : metas
  fr.cnam.foad.nfa035.badges.fileutils.streaming.serializer.impl.db.json.MetadataDeserializerJSONImpl .up.|> fr.cnam.foad.nfa035.badges.fileutils.streaming.serializer.MetadataDeserializer
  fr.cnam.foad.nfa035.badges.fileutils.streaming.serializer.impl.db.json.MetadataDeserializerJSONImpl -up-|> fr.cnam.foad.nfa035.badges.fileutils.streaming.serializer.impl.db.MetadataDeserializerDatabaseImpl


right footer


PlantUML diagram generated by SketchIt! (https://bitbucket.org/pmesmeur/sketch.it)
For more information about this tool, please contact philippe.mesmeur@gmail.com
endfooter

@enduml
